0.0136 0.108 0.2984 0.6953 1.3579 2.3345 3.7439 5.6621 7.9179 10.8528 
0.0173 0.0985 0.311 0.7346 1.4032 2.4173 3.8065 5.6847 7.9778 10.9464 
0.0138 0.0875 0.275 0.6375 1.2266 2.1017 3.3266 4.9199 6.9909 9.5803 
